Immune cell phenotypes of ovarian cancer are determined by distinct mutational processes
…
1.3 MSK IMPACT data

## # A tibble: 54,706 x 48
##    impact_dmp_sample_id impact_dmp_patient_id date_added month_added week_added 
##    <chr>                <chr>                 <date>     <chr>       <chr>      
##  1 P-0000004-T01-IM3    P-0000004             2015-04-07 2015/04     2015, Wk. …
##  2 P-0000012-T02-IM3    P-0000012             2015-04-07 2015/04     2015, Wk. …
##  3 P-0000012-T03-IM3    P-0000012             2015-04-07 2015/04     2015, Wk. …
##  4 P-0000012-T04-IM6    P-0000012             2018-08-01 2018/08     2018, Wk. …
##  5 P-0000015-T01-IM3    P-0000015             2015-04-07 2015/04     2015, Wk. …
##  6 P-0000023-T01-IM3    P-0000023             2015-04-07 2015/04     2015, Wk. …
##  7 P-0000024-T01-IM3    P-0000024             2015-04-07 2015/04     2015, Wk. …
##  8 P-0000025-T01-IM3    P-0000025             2015-04-07 2015/04     2015, Wk. …
##  9 P-0000025-T02-IM5    P-0000025             2016-03-30 2016/03     2016, Wk. …
## 10 P-0000025-T03-IM6    P-0000025             2017-01-31 2017/01     2017, Wk. …
## # … with 54,696 more rows, and 43 more variables: crdb_survey_comments <lgl>,
## #   cancer_type <chr>, sample_type <chr>, sample_class <chr>,
## #   metastatic_site <chr>, primary_site <chr>, cancer_type_detailed <chr>,
## #   gene_panel <chr>, so_comments <chr>, sample_coverage <dbl>,
## #   tumor_purity <chr>, oncotree_code <chr>, msi_comment <chr>,
## #   msi_score <dbl>, msi_type <chr>, institute <chr>, somatic_status <chr>,
## #   age_at_seq_reported_years <chr>, archer <chr>,
## #   cvr_tmb_cohort_percentile <dbl>, cvr_tmb_score <dbl>,
## #   cvr_tmb_tt_cohort_percentile <dbl>, path_slide_exists <chr>,
## #   msk_slide_id <dbl>, who_grade <chr>, mgmt_status <chr>, project <chr>,
## #   patient_id <chr>, impact_dmp_mirror_id <dbl>, impact_gene_panel <chr>,
## #   impact_tumor_type_name <chr>, impact_tumor_type_code <chr>,
## #   impact_primary_site <chr>, impact_metastasis_site <chr>, sample_id <chr>,
## #   aliquot_id <chr>, tumor_supersite <chr>, tumor_site <chr>,
## #   tumor_subsite <chr>, tumor_type <chr>, therapy <chr>, technique <chr>,
## #   is_site_matched <lgl>

1.4 SNVs and indels

## # A tibble: 371 x 166
##    hugo_symbol entrez_gene_id center ncbi_build chromosome start_position
##    <chr>                <dbl> <chr>  <chr>      <chr>               <dbl>
##  1 BRCA2                  675 MSKCC  GRCh37     13               32914438
##  2 TP53                  7157 MSKCC  GRCh37     17                7577548
##  3 ALK                    238 MSKCC  GRCh37     2                29551215
##  4 UPF1                  5976 MSKCC  GRCh37     19               18968017
##  5 NF2                   4771 MSKCC  GRCh37     22               30067818
##  6 KMT2C                58508 MSKCC  GRCh37     7               151860758
##  7 NOTCH2                4853 MSKCC  GRCh37     1               120458525
##  8 WT1                   7490 MSKCC  GRCh37     11               32410657
##  9 GAB2                  9846 MSKCC  GRCh37     11               77991770
## 10 FLT3                  2322 MSKCC  GRCh37     13               28602315
## # … with 361 more rows, and 160 more variables: end_position <dbl>,
## #   strand <chr>, consequence <chr>, variant_classification <chr>,
## #   variant_type <chr>, reference_allele <chr>, tumor_seq_allele1 <chr>,
## #   tumor_seq_allele2 <chr>, dbsnp_rs <chr>, dbsnp_val_status <lgl>,
## #   impact_dmp_sample_id <chr>, matched_norm_sample_barcode <lgl>,
## #   match_norm_seq_allele1 <lgl>, match_norm_seq_allele2 <lgl>,
## #   tumor_validation_allele1 <lgl>, tumor_validation_allele2 <lgl>,
## #   match_norm_validation_allele1 <lgl>, match_norm_validation_allele2 <lgl>,
## #   verification_status <lgl>, validation_status <chr>, mutation_status <chr>,
…
## #   biotype <lgl>, canonical <lgl>, ccds <lgl>, cds_position <lgl>,
## #   clin_sig <lgl>, distance <lgl>, domains <lgl>, eas_maf <lgl>, ea_maf <lgl>,
## #   ensp <lgl>, eur_maf <lgl>, exon <lgl>, exac_af <lgl>, exac_af_afr <lgl>,
## #   exac_af_amr <lgl>, exac_af_eas <lgl>, exac_af_fin <lgl>, exac_af_nfe <lgl>,
## #   exac_af_oth <lgl>, exac_af_sas <lgl>, existing_variation <lgl>,
## #   filter <lgl>, feature <lgl>, feature_type <lgl>, gene_pheno <lgl>,
## #   gmaf <lgl>, gene <lgl>, hgnc_id <lgl>, hgvs_offset <lgl>,
## #   high_inf_pos <lgl>, impact <lgl>, intron <lgl>, is_new <lgl>, ma:fis <lgl>,
## #   ma:fimpact <lgl>, ma:link.msa <lgl>, ma:link.pdb <lgl>, ma:link.var <lgl>,
## #   ma:protein.change <lgl>, minimised <lgl>, motif_name <lgl>,
## #   motif_pos <lgl>, motif_score_change <lgl>, pheno <lgl>, pick <lgl>,
## #   pubmed <lgl>, polyphen <lgl>, sas_maf <lgl>, sift <lgl>, somatic <lgl>,
## #   swissprot <lgl>, symbol <lgl>, …

## # A tibble: 43,200 x 52
##    hugo_symbol impact_dmp_sample_id copy_number impact_dmp_patient_id date_added
##    <chr>       <chr>                      <dbl> <chr>                 <date>    
##  1 RB1         P-0045890-T01-IM6              0 P-0045890             2019-09-04
##  2 RB1         P-0056224-T01-IM6              0 P-0056224             2020-07-24
##  3 RB1         P-0039726-T01-IM6              0 P-0039726             2019-03-29
##  4 RB1         P-0054073-T01-IM6              0 P-0054073             2020-04-04
##  5 RB1         P-0041572-T01-IM6              0 P-0041572             2019-05-09
##  6 RB1         P-0047947-T01-IM6              0 P-0047947             2019-11-02
##  7 RB1         P-0059577-T01-IM7              0 P-0059577             2020-11-07
##  8 RB1         P-0056102-T01-IM6              0 P-0056102             2020-07-22
##  9 RB1         P-0044784-T01-IM6              0 P-0044784             2019-08-09
## 10 RB1         P-0042757-T01-IM6              0 P-0042757             2019-06-15
## # … with 43,190 more rows, and 47 more variables: month_added <chr>,
## #   week_added <chr>, crdb_survey_comments <lgl>, cancer_type <chr>,
## #   sample_type <chr>, sample_class <chr>, metastatic_site <chr>,
## #   primary_site <chr>, cancer_type_detailed <chr>, gene_panel <chr>,
## #   so_comments <chr>, sample_coverage <dbl>, tumor_purity <chr>,
## #   oncotree_code <chr>, msi_comment <chr>, msi_score <dbl>, msi_type <chr>,
## #   institute <chr>, somatic_status <chr>, age_at_seq_reported_years <chr>,
## #   archer <chr>, cvr_tmb_cohort_percentile <dbl>, cvr_tmb_score <dbl>,
## #   cvr_tmb_tt_cohort_percentile <dbl>, path_slide_exists <chr>,
## #   msk_slide_id <dbl>, who_grade <chr>, mgmt_status <chr>, project <chr>,
## #   patient_id <fct>, impact_dmp_mirror_id <dbl>, impact_gene_panel <chr>,
## #   impact_tumor_type_name <chr>, impact_tumor_type_code <chr>,
## #   impact_primary_site <chr>, impact_metastasis_site <chr>, sample_id <chr>,
## #   aliquot_id <chr>, tumor_supersite <chr>, tumor_site <chr>,
## #   tumor_subsite <chr>, tumor_type <chr>, therapy <chr>, technique <chr>,
## #   is_site_matched <lgl>, Role in Cancer <chr>, cna_type <chr>

## # A tibble: 82 x 58
##    hugo_symbol entrez_gene_id center   impact_dmp_sampl… fusion      dna_support
##    <chr>                <dbl> <chr>    <chr>             <chr>       <chr>      
##  1 TSC2                     0 MSKCC-D… P-0040154-T01-IM6 TSC2-intra… yes        
##  2 PTEN                     0 MSKCC-D… P-0040980-T01-IM6 PTEN-intra… yes        
##  3 NF1                      0 MSKCC-D… P-0041572-T01-IM6 NF1-intrag… yes        
##  4 NFE2L2                   0 MSKCC-D… P-0041572-T01-IM6 NFE2L2-int… yes        
##  5 INPPL1                   0 MSKCC-D… P-0045578-T01-IM6 FOLR2-INPP… yes        
##  6 FOLR2                    0 MSKCC-D… P-0045578-T01-IM6 FOLR2-INPP… yes        
##  7 CDK12                    0 MSKCC-D… P-0045578-T01-IM6 CDK12-intr… yes        
##  8 IGF1R                    0 MSKCC-D… P-0045643-T01-IM6 IGF1R-intr… yes        
##  9 MPND                     0 MSKCC-D… P-0045771-T01-IM6 MAP2K2-MPN… yes        
## 10 MAP2K2                   0 MSKCC-D… P-0045771-T01-IM6 MAP2K2-MPN… yes        
## # … with 72 more rows, and 52 more variables: rna_support <chr>, method <lgl>,
## #   frame <chr>, comments <chr>, impact_dmp_patient_id <chr>,
## #   date_added <date>, month_added <chr>, week_added <chr>,
## #   crdb_survey_comments <lgl>, cancer_type <chr>, sample_type <chr>,
## #   sample_class <chr>, metastatic_site <chr>, primary_site <chr>,
## #   cancer_type_detailed <chr>, gene_panel <chr>, so_comments <chr>,
## #   sample_coverage <dbl>, tumor_purity <chr>, oncotree_code <chr>,
## #   msi_comment <chr>, msi_score <dbl>, msi_type <chr>, institute <chr>,
## #   somatic_status <chr>, age_at_seq_reported_years <chr>, archer <chr>,
…
1.5.2 Sample table

1.5.3 Patient table

## # A tibble: 104 x 6
##    patient_id      bulk_dna impact scrna he_slide mpif_slide
##    <chr>              <dbl>  <dbl> <dbl>    <dbl>      <dbl>
##  1 SPECTRUM-OV-001        0      1     0        0          0
##  2 SPECTRUM-OV-002        1      1     3        2          2
##  3 SPECTRUM-OV-003        1      1     6        6          6
##  4 SPECTRUM-OV-004        0      1     0        2          0
##  5 SPECTRUM-OV-005        0      1     0        0          0
##  6 SPECTRUM-OV-006        0      1     0        0          0
##  7 SPECTRUM-OV-007        1      1    12        5          5
##  8 SPECTRUM-OV-008        1      1     6        3          3
##  9 SPECTRUM-OV-009        1      1    15        6          6
## 10 SPECTRUM-OV-010        0      1     0        0          0
## # … with 94 more rows
…
